{
	/******************* C exclusive snippets *******************/
	"If pointer is NULL": {
		"prefix": "ifn",
		"body": [
			"if(NULL == ${1:pointer}) {",
			"\t${2:/* code */}",
			"}"
		],
	},
	"For loop with pre inc": {
		"prefix": "for",
		"body": [
			"for (${1:size_t} ${2:i} = ${3:0}; ${2:i} < ${4:count}; ++${2:i}) {",
			"\t${5:/* code */}",
			"}"
		],
	},
	"Simple main method": {
		"prefix": "mn",
		"body": [
			"int",
			"main(void) {",
			"\t${1:/* code */}",
			"\treturn 0;",
			"}"
		]
	},
	"Include Guards": {
		"prefix": "guard",
		"description": "Include Guards for a C header.",
		"body": [
			"#ifndef ${1:HEADER}_H",
			"#define ${1:HEADER}_H",
			"",
			"${2:/* code */}",
			"",
			"#endif // ${1:HEADER}_H",
		],
	},
	"Typedef Struct": {
		"prefix": "strt",
		"body": [
			"typedef struct {",
			"\t${1:/* data */}",
			"} ${2:/* TNAME */};"
		],
	},
	/******************* C/CPP exclusive snippets *******************/
	"TODO": {
		"prefix": "todo",
		"body": "// TODO: $1",
		"description": "Insert a comment inidicating an open TODO."
	},
	"Typedef Enum": {
		"prefix": "enut",
		"body": [
			"typedef enum {",
			"\t${1:/* constants */}",
			"} ${2:/* TNAME */};"
		],
	},
	"Function Definition": {
		"prefix": "fun",
		"body": [
			"${1:void} ${2:name}($3) {",
			"\t${4:/* body */}",
			"}"
		],
	},
	"Function Declaration": {
		"prefix": "fund",
		"body": [
			"${1:void} ${2:name}($3);",
		],
	},
	"Short If-Statement": {
		"prefix": "ifs",
		"body": "if($1) ${2:/* code */};",
	},
	"Declaration of Public ...": {
		"prefix": "decpu",
		"body": "/******************** Declaration of Public ${1:Functions} ********************/",
		"description": "Comment indicating the start of the declaration for all public ... of this class or library."
	},
	"Declaration of Private ...": {
		"prefix": "decpr",
		"body": "/******************** Declaration of Private ${1:Functions} ********************/",
		"description": "Comment indicating the start of the declaration for all private ... of this class or library."
	},
	"Definition of Public ...": {
		"prefix": "defpu",
		"body": "/******************** Definition of Public ${1:Functions} ********************/",
		"description": "Comment indicating the start of the definition for all public ... of this class or library."
	},
	"Definition of Private ...": {
		"prefix": "defpr",
		"body": "/******************** Definition of Private ${1:Functions} ********************/",
		"description": "Comment indicating the start of the definition for all private ... of this class or library."
	},
	"malloc": {
		"prefix": "mall",
		"body": "${1:pointer} = (${2:void*}) malloc(sizeof($3));$4",
		"description": "Snippet for the malloc function in cpp."
	},
	"calloc": {
		"prefix": "call",
		"body": "${2:void*} ${1:pointer} = (${2:void*}) calloc(${3:1} ,sizeof($4));",
		"description": "Snippet for the calloc function in cpp."
	},
}