{
	/******************* CPP exclusive snippets *******************/
	"Using namespace": {
		"prefix": "un",
		"body": "using namespace ${1:std};"
	},
	"Simple main method": {
		"prefix": "mn",
		"body": [
			"#include <iostream>",
			"",
			"int main(){",
			"\t${1:std::cout << \"Hello World!\\n\";}",
			"\treturn 0;",
			"}"
		]
	},
	"Function Definition for a Class": {
		"prefix": "func",
		"body": [
			"${1:void} ${2:class}::${3:name}($4) {",
			"\t${5:/* body */}",
			"}"
		],
	},
	"If pointer is nullptr": {
		"prefix": "ifn",
		"body": [
			"if(nullptr ${1:=}= ${2:pointer}) {",
			"\t${3:/* code */}",
			"}"
		],
	},
	"Declaration of Protected ...": {
		"prefix": "decpro",
		"body": "/******************** Declaration of Protected ${1:Functions} ********************/",
		"description": "Comment indicating the start of the declaration for all protected ... of this class."
	},
	"Definition of Protected ...": {
		"prefix": "defpro",
		"body": "/******************** Definition of Protected ${1:Functions} ********************/",
		"description": "Comment indicating the start of the definition for all protected ... of this class."
	},
	"override operator": {
		"prefix": "oper",
		"body": "${1:Class&} operator${2:+=}($3)${4:;}",
	},
	"Include Guards": {
		"prefix": "guard",
		"body": [
			"#ifndef ${1:HEADER}_HPP",
			"#define ${1:HEADER}_HPP",
			"",
			"${2:/* code */}",
			"",
			"#endif // ${1:HEADER}_HPP",
		],
		"description": "Include Guards for a CPP header."
	},
	"For loop with pre inc": {
		"prefix": "for",
		"body": [
			"for (${1:size_t} ${2:i} = ${3:0}; ${2:i} < ${4:count}; ++${2:i}) {",
			"\t${5:/* code */}",
			"}"
		],
	},
	/******************* C/CPP exclusive snippets *******************/
	"TODO": {
		"prefix": "todo",
		"body": "// TODO: $1",
		"description": "Insert a comment inidicating an open TODO."
	},
	"Typedef Enum": {
		"prefix": "enut",
		"body": [
			"typedef enum {",
			"\t${1:/* constants */}",
			"} ${2:/* TNAME */};"
		],
	},
	"Function Definition": {
		"prefix": "fun",
		"body": [
			"${1:void} ${2:name}($3) {",
			"\t${4:/* body */}",
			"}"
		],
	},
	"Function Declaration": {
		"prefix": "fund",
		"body": [
			"${1:void} ${2:name}($3);",
		],
	},
	"Short If-Statement": {
		"prefix": "ifs",
		"body": "if($1) ${2:/* code */};",
	},
	"Declaration of Public ...": {
		"prefix": "decpu",
		"body": "/******************** Declaration of Public ${1:Functions} ********************/",
		"description": "Comment indicating the start of the declaration for all public ... of this class or library."
	},
	"Declaration of Private ...": {
		"prefix": "decpr",
		"body": "/******************** Declaration of Private ${1:Functions} ********************/",
		"description": "Comment indicating the start of the declaration for all private ... of this class or library."
	},
	"Definition of Public ...": {
		"prefix": "defpu",
		"body": "/******************** Definition of Public ${1:Functions} ********************/",
		"description": "Comment indicating the start of the definition for all public ... of this class or library."
	},
	"Definition of Private ...": {
		"prefix": "defpr",
		"body": "/******************** Definition of Private ${1:Functions} ********************/",
		"description": "Comment indicating the start of the definition for all private ... of this class or library."
	},
	"malloc": {
		"prefix": "mall",
		"body": "${1:pointer} = (${2:void*}) malloc(sizeof($3));$4",
		"description": "Snippet for the malloc function in cpp."
	},
	"calloc": {
		"prefix": "call",
		"body": "${2:void*} ${1:pointer} = (${2:void*}) calloc(${3:1} ,sizeof($4));",
		"description": "Snippet for the calloc function in cpp."
	},
	"Throw an unimplemented error": {
		"prefix": [
			"unim",
		],
		"body": [
			"// TODO(${1:obemu}): Implement this.",
			"throw \"unimplemented: $2\";",
		]
	},
}